<svg xmlns="http://www.w3.org/2000/svg" viewBox="0 0 24 17.2">
  <defs>
    <style>
      .cls-1 {
        opacity: 0.5;
      }
    </style>
  </defs>
  <path id="letter_icon-icons.com_67753" class="cls-1" d="M0,8.5V25.7H24V8.5Zm14.65,8.826-2.178,2.189a.693.693,0,0,1-.933.01l-2.189-2.2.019-.019L1.459,9.3H22.546l-7.916,8.007Zm-6.44-.012L.8,24.442V9.869Zm.564.567,2.209,2.22A1.481,1.481,0,0,0,12,20.5a1.511,1.511,0,0,0,1.032-.408l2.2-2.209,7.295,7.02H1.474Zm7.017-.566L23.2,9.869V24.442Z" transform="translate(0 -8.5)"/>
</svg>
