<svg xmlns="http://www.w3.org/2000/svg" viewBox="0 0 20.322 21">
  <defs>
    <style>
      .cls-1 {
        opacity: 0.5;
        fill: #231f20;
      }
    </style>
  </defs>
  <path id="Pfad_6" class="cls-1" data-name="Pfad 6" d="M18.336,0a8.133,8.133,0,1,0,4.645,14.809l6.15,6.149a.142.142,0,0,0,.2,0L30.488,19.8a.143.143,0,0,0,0-.2l-6.07-6.07A8.132,8.132,0,0,0,18.336,0Zm0,15.308a7.176,7.176,0,1,1,7.176-7.176A7.176,7.176,0,0,1,18.336,15.308Z" transform="translate(-10.204)"/>
</svg>
